nohup: ignoring input
about to fork child process, waiting until server is ready for connections.
forked process: 29695
all output going to: /var/log/mongodb.log
log file [/var/log/mongodb.log] exists; copied to temporary file [/var/log/mongodb.log.2015-03-19T18-54-48]
ERROR: child process failed, exited with error number 100
